67
0	1
0.00253303	0.999873
0.00506638	0.999493
0.00760069	0.99886
0.0101366	0.997972
0.0126748	0.996831
0.0152159	0.995433
0.0177605	0.99378
0.0203094	0.991869
0.0228632	0.9897
0.0254226	0.987269
0.0279883	0.984577
0.030561	0.981621
0.0331415	0.978398
0.0357304	0.974905
0.0383286	0.971141
0.0409369	0.967102
0.0435561	0.962785
0.0461871	0.958186
0.0488306	0.953301
0.0514878	0.948126
0.0541594	0.942657
0.0568465	0.936888
0.0595502	0.930813
0.0622715	0.924428
0.0650116	0.917726
0.0677717	0.910699
0.0705531	0.903342
0.0733572	0.895645
0.0761853	0.887601
0.0790391	0.879199
0.0819202	0.870431
0.0848303	0.861284
0.0877713	0.851748
0.0907452	0.84181
0.0937542	0.831455
0.0968007	0.820668
0.0998873	0.809433
0.103017	0.797731
0.106192	0.785543
0.109416	0.772845
0.112694	0.759614
0.116029	0.745821
0.119425	0.731437
0.122888	0.716427
0.126424	0.700753
0.130038	0.684371
0.13374	0.667231
0.137536	0.649276
0.141437	0.63044
0.145455	0.610645
0.149603	0.5898
0.153898	0.567797
0.158359	0.544503
0.163011	0.519757
0.167885	0.493358
0.173019	0.465046
0.178466	0.434482
0.184296	0.401205
0.190609	0.364562
0.197557	0.323576
0.205386	0.276663
0.214541	0.220955
0.224541	0.15928
0.234541	0.0969768
0.244541	0.0342909
0.25	0

# This file contains interpolation data for cos(2*pi*x) for 0<=x<=0.25
# the rest of the unit circle can be done by checking quadrants, which
# hopefully is faster than a full interpolator. The linear interpolation
# error is at most about 1e-4.
